Library\Bee\artifacts\mvdfrm\UnityEditor.TestRunner.ref.dll_3CEDFFDC50464BDC.mvfrm
Library\Bee\artifacts\mvdfrm\UnityEditor.UI.ref.dll_5DAE2CC8CF4B8C9E.mvfrm
Library\Bee\artifacts\mvdfrm\UnityEngine.TestRunner.ref.dll_090C4A8A7C09A9C7.mvfrm
Library\Bee\artifacts\mvdfrm\UnityEngine.UI.ref.dll_1A140323D56DB509.mvfrm
Library\Bee\artifacts\mvdfrm\Unity.Burst.Cecil.dll_7D9B053344306833.mvfrm
Library\Bee\artifacts\mvdfrm\Unity.Burst.Cecil.Mdb.dll_44213E7A34C0A030.mvfrm
Library\Bee\artifacts\mvdfrm\Unity.Burst.Cecil.Pdb.dll_5B73B6E9B375A1B3.mvfrm
Library\Bee\artifacts\mvdfrm\Unity.Burst.Cecil.Rocks.dll_B5B19EA62A7AA633.mvfrm
Library\Bee\artifacts\mvdfrm\Unity.Burst.Unsafe.dll_27E8133057D21570.mvfrm
Library\Bee\artifacts\mvdfrm\Unity.Plastic.Antlr3.Runtime.dll_E6021CDC6209146C.mvfrm
Library\Bee\artifacts\mvdfrm\Unity.Plastic.Newtonsoft.Json.dll_DF54B0C0CB7CBC09.mvfrm
Library\Bee\artifacts\mvdfrm\Unity.VisualScripting.IonicZip.dll_DFEF0E4EF4A017D3.mvfrm
Library\Bee\artifacts\mvdfrm\Unity.VisualScripting.YamlDotNet.dll_0384A2C230D17799.mvfrm
Library\Bee\artifacts\mvdfrm\Unity.VisualScripting.Antlr3.Runtime.dll_B4F1C9A3619A87B8.mvfrm
Library\Bee\artifacts\mvdfrm\UnityEditor.Graphs.dll_3F076AD7C9BFE5CC.mvfrm
Library\Bee\artifacts\mvdfrm\UnityEditor.CoreModule.dll_5E91E69668B3759A.mvfrm
Library\Bee\artifacts\mvdfrm\UnityEditor.DeviceSimulatorModule.dll_8EF6FC873E5B4147.mvfrm
Library\Bee\artifacts\mvdfrm\UnityEditor.DiagnosticsModule.dll_08F0F1B3E0CB49D5.mvfrm
Library\Bee\artifacts\mvdfrm\UnityEditor.dll_21218D06205380DB.mvfrm
Library\Bee\artifacts\mvdfrm\UnityEditor.GraphViewModule.dll_6BE884650B62050C.mvfrm
Library\Bee\artifacts\mvdfrm\UnityEditor.PackageManagerUIModule.dll_29E8B9D8EC744676.mvfrm
Library\Bee\artifacts\mvdfrm\UnityEditor.QuickSearchModule.dll_940072C139A2462E.mvfrm
Library\Bee\artifacts\mvdfrm\UnityEditor.SceneTemplateModule.dll_BC9040F6A50C366F.mvfrm
Library\Bee\artifacts\mvdfrm\UnityEditor.TextCoreFontEngineModule.dll_29F5B6B9CE84F1D8.mvfrm
Library\Bee\artifacts\mvdfrm\UnityEditor.TextCoreTextEngineModule.dll_71DDED2B5E08AAF6.mvfrm
Library\Bee\artifacts\mvdfrm\UnityEditor.UIBuilderModule.dll_C07131817E1A7E40.mvfrm
Library\Bee\artifacts\mvdfrm\UnityEditor.UIElementsModule.dll_76BF1D6674474296.mvfrm
Library\Bee\artifacts\mvdfrm\UnityEditor.UIElementsSamplesModule.dll_24F6DC5961DA5A37.mvfrm
Library\Bee\artifacts\mvdfrm\UnityEditor.UIServiceModule.dll_F96342E46751CE5A.mvfrm
Library\Bee\artifacts\mvdfrm\UnityEditor.UnityConnectModule.dll_98F6182411A8F150.mvfrm
Library\Bee\artifacts\mvdfrm\UnityEngine.AccessibilityModule.dll_EF35AC8DA5825E0C.mvfrm
Library\Bee\artifacts\mvdfrm\UnityEngine.AIModule.dll_0D42AFE739BB94AE.mvfrm
Library\Bee\artifacts\mvdfrm\UnityEngine.AndroidJNIModule.dll_F5080639BD66B16C.mvfrm
Library\Bee\artifacts\mvdfrm\UnityEngine.AnimationModule.dll_3A6E008DE5BED9B2.mvfrm
Library\Bee\artifacts\mvdfrm\UnityEngine.ARModule.dll_C6B574EA96D8F377.mvfrm
Library\Bee\artifacts\mvdfrm\UnityEngine.AssetBundleModule.dll_D7E9A5B29C08FB20.mvfrm
Library\Bee\artifacts\mvdfrm\UnityEngine.AudioModule.dll_42F4B39DE0277E24.mvfrm
Library\Bee\artifacts\mvdfrm\UnityEngine.ClothModule.dll_A9DD1098BA445D08.mvfrm
Library\Bee\artifacts\mvdfrm\UnityEngine.ClusterInputModule.dll_18928D39C330C416.mvfrm
Library\Bee\artifacts\mvdfrm\UnityEngine.ClusterRendererModule.dll_94A3BEF8AE164ECB.mvfrm
Library\Bee\artifacts\mvdfrm\UnityEngine.CoreModule.dll_81B2B9E910B8E0C5.mvfrm
Library\Bee\artifacts\mvdfrm\UnityEngine.CrashReportingModule.dll_534AB56BF6DB217D.mvfrm
Library\Bee\artifacts\mvdfrm\UnityEngine.DirectorModule.dll_F44F154E4E48B822.mvfrm
Library\Bee\artifacts\mvdfrm\UnityEngine.dll_53C5D3DE7EC70DC0.mvfrm
Library\Bee\artifacts\mvdfrm\UnityEngine.DSPGraphModule.dll_F9A076B7C0A98943.mvfrm
Library\Bee\artifacts\mvdfrm\UnityEngine.GameCenterModule.dll_1F55505483A7A25D.mvfrm
Library\Bee\artifacts\mvdfrm\UnityEngine.GIModule.dll_A57EF8F4D56A7CC8.mvfrm
Library\Bee\artifacts\mvdfrm\UnityEngine.GridModule.dll_5F23D5D7290D76BC.mvfrm
Library\Bee\artifacts\mvdfrm\UnityEngine.HotReloadModule.dll_BBB6BE93C0F1F534.mvfrm
Library\Bee\artifacts\mvdfrm\UnityEngine.ImageConversionModule.dll_0095BCA9303B06BF.mvfrm
Library\Bee\artifacts\mvdfrm\UnityEngine.IMGUIModule.dll_7B545304A6591205.mvfrm
Library\Bee\artifacts\mvdfrm\UnityEngine.InputLegacyModule.dll_692EC0D133FAB111.mvfrm
Library\Bee\artifacts\mvdfrm\UnityEngine.InputModule.dll_A96A7B4E565FA2C8.mvfrm
Library\Bee\artifacts\mvdfrm\UnityEngine.JSONSerializeModule.dll_4F4D35C9A4BDBE96.mvfrm
Library\Bee\artifacts\mvdfrm\UnityEngine.LocalizationModule.dll_56DF578C5AACB70F.mvfrm
Library\Bee\artifacts\mvdfrm\UnityEngine.NVIDIAModule.dll_2BFF9552A5DF0FD1.mvfrm
Library\Bee\artifacts\mvdfrm\UnityEngine.ParticleSystemModule.dll_A65CFEB864ECAD0B.mvfrm
Library\Bee\artifacts\mvdfrm\UnityEngine.PerformanceReportingModule.dll_5F3251EF3A287A84.mvfrm
Library\Bee\artifacts\mvdfrm\UnityEngine.Physics2DModule.dll_8713F07E86BBD147.mvfrm
Library\Bee\artifacts\mvdfrm\UnityEngine.PhysicsModule.dll_095C4D7190C01575.mvfrm
Library\Bee\artifacts\mvdfrm\UnityEngine.ProfilerModule.dll_26954E84E7A23F2F.mvfrm
Library\Bee\artifacts\mvdfrm\UnityEngine.RuntimeInitializeOnLoadManagerInitializerModule.dll_034BCE6E15625010.mvfrm
Library\Bee\artifacts\mvdfrm\UnityEngine.ScreenCaptureModule.dll_6934E34EB929EAF8.mvfrm
Library\Bee\artifacts\mvdfrm\UnityEngine.SharedInternalsModule.dll_84A6FB7EA769020F.mvfrm
Library\Bee\artifacts\mvdfrm\UnityEngine.SpriteMaskModule.dll_0881C2E4A51737D7.mvfrm
Library\Bee\artifacts\mvdfrm\UnityEngine.SpriteShapeModule.dll_F14AD30D51AB332A.mvfrm
Library\Bee\artifacts\mvdfrm\UnityEngine.StreamingModule.dll_EF02EDDE354690F0.mvfrm
Library\Bee\artifacts\mvdfrm\UnityEngine.SubstanceModule.dll_CBAE022780998EFE.mvfrm
Library\Bee\artifacts\mvdfrm\UnityEngine.SubsystemsModule.dll_732F2946735F1FEA.mvfrm
Library\Bee\artifacts\mvdfrm\UnityEngine.TerrainModule.dll_23A2C8E0667E5E63.mvfrm
Library\Bee\artifacts\mvdfrm\UnityEngine.TerrainPhysicsModule.dll_A6D7A78B7E2FA798.mvfrm
Library\Bee\artifacts\mvdfrm\UnityEngine.TextCoreFontEngineModule.dll_A855320CE182B0A3.mvfrm
Library\Bee\artifacts\mvdfrm\UnityEngine.TextCoreTextEngineModule.dll_F03D687E710669C1.mvfrm
Library\Bee\artifacts\mvdfrm\UnityEngine.TextRenderingModule.dll_9274555970616AED.mvfrm
Library\Bee\artifacts\mvdfrm\UnityEngine.TilemapModule.dll_C29F30617E3B3F6C.mvfrm
Library\Bee\artifacts\mvdfrm\UnityEngine.TLSModule.dll_37DA9AFE63DC8109.mvfrm
Library\Bee\artifacts\mvdfrm\UnityEngine.UIElementsModule.dll_776D8AAE768B5BE1.mvfrm
Library\Bee\artifacts\mvdfrm\UnityEngine.UIElementsNativeModule.dll_74626E6E5DECB698.mvfrm
Library\Bee\artifacts\mvdfrm\UnityEngine.UIModule.dll_08B64E1496029A5A.mvfrm
Library\Bee\artifacts\mvdfrm\UnityEngine.UmbraModule.dll_BDC95FB66D4E2997.mvfrm
Library\Bee\artifacts\mvdfrm\UnityEngine.UNETModule.dll_145901D25DC7D63E.mvfrm
Library\Bee\artifacts\mvdfrm\UnityEngine.UnityAnalyticsModule.dll_C5FC6F821113FF07.mvfrm
Library\Bee\artifacts\mvdfrm\UnityEngine.UnityConnectModule.dll_86559C330C30F1FB.mvfrm
Library\Bee\artifacts\mvdfrm\UnityEngine.UnityCurlModule.dll_6D8AA1BF55D2CB9F.mvfrm
Library\Bee\artifacts\mvdfrm\UnityEngine.UnityTestProtocolModule.dll_E0B9924BBBD5AF8D.mvfrm
Library\Bee\artifacts\mvdfrm\UnityEngine.UnityWebRequestAssetBundleModule.dll_C35143E9BA518F18.mvfrm
Library\Bee\artifacts\mvdfrm\UnityEngine.UnityWebRequestAudioModule.dll_D72EA5CDC093451C.mvfrm
Library\Bee\artifacts\mvdfrm\UnityEngine.UnityWebRequestModule.dll_1234C4533B2FA13E.mvfrm
Library\Bee\artifacts\mvdfrm\UnityEngine.UnityWebRequestTextureModule.dll_ACFEC7E646C9D671.mvfrm
Library\Bee\artifacts\mvdfrm\UnityEngine.UnityWebRequestWWWModule.dll_BAFFADDA60C6262D.mvfrm
Library\Bee\artifacts\mvdfrm\UnityEngine.VehiclesModule.dll_6C120ECDC87287BD.mvfrm
Library\Bee\artifacts\mvdfrm\UnityEngine.VFXModule.dll_B8B9336D3A49EA76.mvfrm
Library\Bee\artifacts\mvdfrm\UnityEngine.VideoModule.dll_67FE3808A2B999C9.mvfrm
Library\Bee\artifacts\mvdfrm\UnityEngine.VirtualTexturingModule.dll_98EF22DD369B3723.mvfrm
Library\Bee\artifacts\mvdfrm\UnityEngine.VRModule.dll_5B88749A37BD1FD2.mvfrm
Library\Bee\artifacts\mvdfrm\UnityEngine.WindModule.dll_F8019511A1EF5F2E.mvfrm
Library\Bee\artifacts\mvdfrm\UnityEngine.XRModule.dll_8E47379EC0F76D30.mvfrm
Library\Bee\artifacts\mvdfrm\Unity.Android.Gradle.dll_2E5355FC1A948C82.mvfrm
Library\Bee\artifacts\mvdfrm\Unity.Android.Types.dll_02A47E2E8BDE5EDA.mvfrm
Library\Bee\artifacts\mvdfrm\UnityEditor.Android.Extensions.dll_D772BA7642761E02.mvfrm
Library\Bee\artifacts\mvdfrm\UnityEditor.WebGL.Extensions.dll_E5743CDA9304E3B6.mvfrm
Library\Bee\artifacts\mvdfrm\UnityEditor.WindowsStandalone.Extensions.dll_B0B042CD83691FA6.mvfrm